[
  {
    "description": "عُملة ند للند  رقميّة بدون  سلطة مركزيّة.",
    "slug": "bitcoin"
  },
  {
    "description": "توزيعة جنو/لينكس شهيرة و أخلاقية.",
    "slug": "debian"
  },
  {
    "description": "يحميك من التتبع المرتبط بالوصول للمحتوى \"مجاني\"، مركزية.",
    "slug": "decentraleyes"
  },
  {
    "description": "موقع إجتماعي  موزّع يديره  المجتمع.",
    "slug": "diaspora"
  },
  {
    "description": "بحث على شبكة الإنترنت مجهول وغير مُسجّل.",
    "slug": "duckduckgo"
  },
  {
    "description": "إضافة OpenPGP للـثندربرد/Icedove.   ",
    "slug": "enigmail"
  },
  {
    "description": "جدول الخادم  متعدّد  المستخدمين.",
    "slug": "ethercalc"
  },
  {
    "description": "تطبيق يوميّة  وبريد  إلكتروني  مجاني .",
    "slug": "evolution"
  },
  {
    "description": "توزيعة جنو/لينكس سريعة، مستقرة و فعالة.",
    "slug": "fedora"
  },
  {
    "description": "شبكة لامركزية مقاومة للرقابة .",
    "slug": "freenet"
  },
  {
    "description": "خادم ويب  إجتماعي  مجاني ومفتوح  المصدر.",
    "slug": "friendica"
  },
  {
    "description": "تزامن  الملفات على  كلّ محرك  أقراص و حاسوب  من حواسيبك.",
    "slug": "git-annex"
  },
  {
    "description": "تطبيق OpenPGP مجاني.",
    "slug": "gnu-privacy-guard"
  },
  {
    "description": "تُشفّر تواصلك مع آلاف المواقع.",
    "slug": "https-everywhere"
  },
  {
    "description": "مشروع  الإنترنت  الغير مرئية.",
    "slug": "i2p"
  },
  {
    "description": "دردشة نصيّة  ومحادثة  فيديو مشفرة.",
    "slug": "jitsi"
  },
  {
    "description": "عميل بريد  إلكتروني  كيدي داعم للـGPG.",
    "slug": "kontact"
  },
  {
    "description": "تشفير OpenPGP  للبريد  الإلكتروني.",
    "slug": "mailvelope"
  },
  {
    "description": "تحليلات  شبكيّة ذاتية  الإستضافة،  مفتوحة  المصدر.",
    "slug": "matomo"
  },
  {
    "description": "منصة  لامركزيّة  لنشر الوسائط.",
    "slug": "mediagoblin"
  },
  {
    "description": "خادم موقع  إجتماعي  لامركزي، خاص .",
    "slug": "movim"
  },
  {
    "description": "متصفح ويب مفتوح المصدر.",
    "slug": "mozilla-firefox"
  },
  {
    "description": "برامج بريد  إلكتروني  مفتوحة  المصدر.",
    "slug": "mozilla-thunderbird"
  },
  {
    "description": "دردشه صوتيّة  مشفّرة وذات  زمن الوصول  منخفض.",
    "slug": "mumble"
  },
  {
    "description": " DNS موزع مبني على تكنولوجيا بتكوين. ",
    "slug": "namecoin"
  },
  {
    "description": " تفعيل جافا سكريبت، جافا، وفلاش فقط للمواقع التي تثق بها.",
    "slug": "noscript"
  },
  {
    "description": "خريطة عالمية,  تعاونية و حرة   .",
    "slug": "openstreetmap"
  },
  {
    "description": "وسيط تور للأندرويد.",
    "slug": "orbot"
  },
  {
    "description": "منصّة متصفّح  صور مجانيّة.",
    "slug": "piwigo"
  },
  {
    "description": "خادم تيار  إجتماعي ذاتي  الإستضافة.",
    "slug": "pumpio"
  },
  {
    "description": "توزيعة  أندرويد حرة  بالكامل.",
    "slug": "replicant"
  },
  {
    "description": "برنامج  إتصالات الند  للند حر و آمن.",
    "slug": "retroshare"
  },
  {
    "description": "حسابات بريد  إلكتروني  خاصة وآمنة.",
    "slug": "riseup"
  },
  {
    "description": "وسيلة إتصال  متعددة  الواجهة  ومتعددة  الأغراض .",
    "slug": "salut-a-toi"
  },
  {
    "description": "مراقبة  الإصدار ذاتي  الإستضافة و  الملفات  المتزامنة  ذاتيّة  الإستضافة.",
    "slug": "sparkleshare"
  },
  {
    "description": "بحث على شبكة الإنترنت خاصّة وغير مُسجّل .",
    "slug": "startpage"
  },
  {
    "description": "نظام تخزين  سحابي مجاني  وآمن.   ",
    "slug": "tahoe-lafs"
  },
  {
    "description": "توزيعة حية على قرص أو USB مصممة للخصوصية.",
    "slug": "tails"
  },
  {
    "description": "إبحار مشفر و سري.",
    "slug": "tor-browser"
  },
  {
    "description": "موقع ويب  مجاني/مدونة  مجانية CMS.",
    "slug": "wordpress"
  },
  {
    "description": "موقع ويب ذو  الوسائط  مجانيّة CMS.",
    "slug": "zenphoto"
  }
]
