[
  {
    "description": "Ein Betriebssystem, das auf Tor, Anonymität, Privatsphäre und Sicherheit setzt. Es bietet anwendungsbereite VM-Images.",
    "notes": "Whonix ist dafür vorgesehen, in einer virtuellen Maschine wie z.V. [VirtualBox](https://www.virtualbox.org/) zu laufen. VirtualBox kann auf Windows, Linux, macOS, und Solaris installiert werden. Solltest du also aus welchen Gründen auch immer auf Windows oder macOS angewiesen sein, kannst du innerhalb einer VirtualBox mit Whonix trotzdem mehr Privatssphäre und Sicherheit genießen."
  },
  {
    "description": " Android application compatible with ZX2C4's Pass command line application.",
    "slug": "android-password-store",
    "url": "https://github.com/zeapo/Android-Password-Store/blob/master/README.md",
    "wikipedia_url": ""
  },
  {
    "description": "PBX-Implementation mit VoIP/SIP-Unterstützung.",
    "slug": "asterisk",
    "url": "http://www.asterisk.org/",
    "wikipedia_url": "https://en.wikipedia.org/wiki/Asterisk_%28PBX%29"
  },
  {
    "description": "Eine ganze Reihe von kostenfreien, privatsphärebewussten Diensten mit Hosting, VPN, E-Mail, IM und mehr.",
    "slug": "autistici-inventati",
    "url": "https://www.autistici.org/",
    "wikipedia_url": ""
  },
  {
    "description": "P2P-basierte digitale Währung ohne zentrale Autorität.",
    "notes": "Bitte sei Dir bewusst, dass neue digitale Währungen starken Wertschwankungen ausgesetzt sein können. Vollständiger Verlusst deiner Investitionen ist aus diversen Gründen möglich (Softwarefehler oder Angriffe, Identitätsdiebstahl, etc.). Sei vorsichtig!",
    "slug": "bitcoin",
    "url": "http://bitcoin.org",
    "wikipedia_url": "https://en.wikipedia.org/wiki/Bitcoin"
  },
  {
    "description": "Verschlüsselter, dezentraler P2P-Nachrichtenservice basierend auf der Bitcoin-Technologie.",
    "notes": "Bitmessage ist eine vielversprechende Alternative zu E-Mail, wurde allerdings noch nicht von Computersicherheitsexperten auditiert. Benutze es auf deine eigene Verantwortung. Wenn du dich dazu entschließt, stelle bitte sicher, dass du eine wirklich zufällige ID generierst. So wird die Wahrscheinlichkeit von ID-Kollisionen reduziert.",
    "slug": "bitmessage",
    "url": "https://bitmessage.org/wiki/Main_Page",
    "wikipedia_url": "https://en.wikipedia.org/wiki/Bitmessage"
  },
  {
    "description": "Computerplatform für Unternehmen mit 100%iger Binärkompatbilität mit RHEL.",
    "slug": "centos",
    "url": "https://www.centos.org/",
    "wikipedia_url": "https://en.wikipedia.org/wiki/CentOS"
  },
  {
    "description": "OMEMO or OTR encrypted IM for iOS.",
    "slug": "chatsecure",
    "url": "https://chatsecure.org/",
    "wikipedia_url": "https://en.wikipedia.org/wiki/The_Guardian_Project_(software)#ChatSecure"
  },
  {
    "description": "Cjdns ist ein Netzwerkprotokoll; ein System von Regeln für den digitalen Austausch von Nachrichten zwischen Computern. “Anstatt anderen Computern eine Verbindung zu dir über eine geteilte IP-Adresse zu erlauben, sorgt cjdns für kryptographische Verifikation der Computer und erlaubt erst danach eine Verbindung.",
    "slug": "cjdns",
    "url": "https://github.com/cjdelisle/cjdns",
    "wikipedia_url": "https://en.wikipedia.org/wiki/Cjdns"
  },
  {
    "description": "Conversations ist ein opensource XMPP/Jabber Client für Android 4.0+ Handys.",
    "slug": "conversations",
    "url": "https://github.com/siacs/Conversations",
    "wikipedia_url": ""
  },
  {
    "description": "Eigener PaaS, den Du hosten, hacken und löschen kannst.",
    "slug": "cozy",
    "url": "http://cozy.io/",
    "wikipedia_url": ""
  },
  {
    "description": "Privates und verschlüsseltes Sofortnachrichtensystem in deinen Browser integriert.",
    "slug": "cryptocat",
    "url": "https://crypto.cat/",
    "wikipedia_url": "https://en.wikipedia.org/wiki/Cryptocat"
  },
  {
    "description": "Self-hosted, zero-knowledge, real-time collaborative documents.",
    "notes": "Encryption carried out in your web browser protects the data from the server, the cloud, and the NSA. The secret encryption key is stored in the URL fragment identifier which is never sent to the server but is available to javascript, so by sharing the URL, you give authorization to others who want to participate. Users must still take care to share links over an end-to-end-encrypted medium for best effect.",
    "slug": "cryptpad",
    "url": "https://cryptpad.fr",
    "wikipedia_url": ""
  },
  {
    "description": "Ein bequem und einfach zu bedienende Erweiterung von dmcrypt.",
    "notes": "Gentoo pflegt [eine Anleitung](https://wiki.gentoo.org/wiki/DM-Crypt_LUKS) zu dm-crypt mit LUKS.\n\nArch Linux pflegt [eine solche Anleitung](https://wiki.archlinux.org/index.php/Dm-crypt_with_LUKS) ebenso.\n\ndm-crypt ist auch für [DragonFly BSD](https://prism-break.org/de/projects/dragonfly-bsd/) verfügbar.",
    "slug": "cryptsetup",
    "url": "https://gitlab.com/cryptsetup/cryptsetup",
    "wikipedia_url": "https://en.wikipedia.org/wiki/Dm-crypt"
  },
  {
    "description": "Populäre, ethische GNU/Linux-Distribution.",
    "slug": "debian",
    "url": "http://debian.org",
    "wikipedia_url": "https://en.wikipedia.org/wiki/Debian"
  },
  {
    "description": "Schützt vor Tracking durch “gratis”, zentralisiertes, Abliefern von Content. Es sorgt dafür, dass Anfragen Netzwerke wie “Google Hosted Libraries” nicht erreichen, aber imitiert sie, sodass die Seiten intakt bleiben. Ergänzt reguläre Contentsperren.",
    "notes": "- Kappt zum Schutze deiner Privatsphäre Verbindungen zu CDNs, die ihre Dienste kostenlos anbieten.\n- Ergänzt schon installierte Blocker wie uBlock Origin oder Privacy Badger etc.\n- Vorkonfiguriert und sofort einsatzbereit (kein Neustart notwendig).\n\nDecentraleyes ist kein Patentrezept, aber es schützt bei einer Vielzahl von Websiten vor Tracking. Letztlich kannst du Decentraleyes anweisen, Anfragen für nicht anwesende CDN-Dateien zu blockieren.",
    "slug": "decentraleyes",
    "url": "https://decentraleyes.org",
    "wikipedia_url": ""
  },
  {
    "description": "Gemeinschaftsbetriebenes, verteiltes soziales Netzwerk.",
    "slug": "diaspora",
    "url": "https://diasporafoundation.org/",
    "wikipedia_url": "https://en.wikipedia.org/wiki/Diaspora_%28software%29"
  },
  {
    "description": "Ein Tool, mit dem eine sichere Kommunikation zwischen Client und DNS Resolver sichergestelllt wird.",
    "slug": "dnscrypt",
    "url": "https://dnscrypt.info",
    "wikipedia_url": ""
  },
  {
    "description": "Anonyme, aufzeichnungsfreie Websuchen.",
    "notes": "DuckDuckGo ist ein Softwaredienst [SaaS](https://de.wikipedia.org/wiki/SaaS), der rund um die Welt gehostet wird und dir anonymisierte Suchergebnisse [diverser Quellen](https://duck.co/help/results/sources) bietet. DDGs quell-offene Komponenten sind [hier verfügbar](https://github.com/duckduckgo).\n\nEs gibt DuckDuckGo auch als versteckten Dienst unter [3g2upl4pq6kufc4m.onion](http://3g2upl4pq6kufc4m.onion) für Tor-Nutzer.",
    "slug": "duckduckgo",
    "url": "https://duckduckgo.com/",
    "wikipedia_url": "https://en.wikipedia.org/wiki/DuckDuckGo"
  },
  {
    "description": "POSIX-compliant enterprise cryptographic stacked filesystem for GNU/Linux.",
    "slug": "ecryptfs",
    "url": "http://ecryptfs.org/",
    "wikipedia_url": "https://en.wikipedia.org/wiki/ECryptfs"
  },
  {
    "description": "In Erlang/OTP geschriebener XMPP-Server für GNU/Linux und macOS.",
    "slug": "ejabberd",
    "url": "http://www.ejabberd.im/",
    "wikipedia_url": "https://en.wikipedia.org/wiki/Ejabberd"
  },
  {
    "description": "Dateibasiertes Verschlüsselungstool für GNU/Linux, Mac macOS und Windows.",
    "notes": "EncFS ist für Windows als Portierung “encfs4win” verfügbar.",
    "slug": "encfs",
    "url": "https://vgough.github.io/encfs/",
    "wikipedia_url": "https://en.wikipedia.org/wiki/EncFS"
  },
  {
    "description": "Ein OpenPGP-Add-on für Thunderbird/Icedove.",
    "notes": "[Hier findest du eine Anleitung](https://securityinabox.org/en/guide/thunderbird/linux/) von Security In A Box für die Verschlüsselung deiner E-Mail mit Mozilla Thunderbird, GNU Privacy Guard (GPG) und Enigmail. Also read the [Email Self-Defense guide](https://emailselfdefense.fsf.org) by the Free Software Foundation to learn how to encrypt your email messages.",
    "slug": "enigmail",
    "url": "https://www.enigmail.net/home/index.php",
    "wikipedia_url": "https://en.wikipedia.org/wiki/Enigmail"
  },
  {
    "description": "Tabellenkalkulation für mehrere Benutzer.",
    "notes": "Der Online-Dienst EtherCalc verschlüsselt die Datenübertragung mit HTTPS, aber die Daten selbst können von jedem gelesen werden, der die URL des Tabellendokuments kennt oder raten kann. Setzen einen eigenen Ethercalc-Server auf, wenn dir deine Privatsphäre wichtig ist.",
    "slug": "ethercalc",
    "url": "http://ethercalc.net/",
    "wikipedia_url": ""
  },
  {
    "description": "Email, Adressbuch und Kalenderanwendung für das GNOME-Desktop mit PGP-Unterstützung.",
    "slug": "evolution",
    "url": "https://projects.gnome.org/evolution/",
    "wikipedia_url": "https://en.wikipedia.org/wiki/Evolution_%28software%29"
  },
  {
    "description": "Freier und quelloffener Android-Appstore als Alternative zu Google Play.",
    "slug": "f-droid",
    "url": "https://f-droid.org/",
    "wikipedia_url": "https://en.wikipedia.org/wiki/F-Droid"
  },
  {
    "description": "Schnelle, stabile und mächtige GNU/Linux-Distribution.",
    "slug": "fedora",
    "url": "https://fedoraproject.org/",
    "wikipedia_url": "https://es.wikipedia.org/wiki/Fedora_%28distribuci%C3%B3n_Linux%29"
  },
  {
    "description": "Ein freies Betriebssystem, das direkt von der Berkeley Software Distribution abstammt.",
    "slug": "freebsd",
    "url": "https://www.freebsd.org/",
    "wikipedia_url": "https://en.wikipedia.org/wiki/FreeBSD"
  },
  {
    "description": "FreedomBox integriert Datenschutz auf einem günstigen Plug-Server.",
    "slug": "freedombox",
    "url": "https://www.freedomboxfoundation.org/",
    "wikipedia_url": "https://en.wikipedia.org/wiki/FreedomBox"
  },
  {
    "description": "Dezentralisiertes, zensurresistentes Netzwerk.",
    "slug": "freenet",
    "url": "https://freenetproject.org/",
    "wikipedia_url": "https://en.wikipedia.org/wiki/Freenet"
  },
  {
    "description": "FreeOTP is a two-factor authentication application for systems utilizing one-time password protocols.",
    "notes": "FreeOTP adds a second layer of security for your online accounts. This works by generating one-time passwords on your mobile devices which can be used in conjunction with your normal password to make your login nearly impossible to hack.",
    "slug": "freeotp",
    "url": "https://freeotp.github.io/",
    "wikipedia_url": "https://en.wikipedia.org/wiki/FreeOTP"
  },
  {
    "description": "Plattformübergreifende Soft-Switch-Software mit VoIP/SIP-Unterstützung.",
    "slug": "freeswitch",
    "url": "https://www.freeswitch.org/",
    "wikipedia_url": "https://en.wikipedia.org/wiki/FreeSWITCH"
  },
  {
    "description": "Freifunk.net hat zum Ziel, freie, unabhängige und nichtkommerzielle Computer-Funknetze zu etablieren.",
    "slug": "freifunk",
    "url": "http://wiki.freifunk.net/Kategorie:English",
    "wikipedia_url": "https://en.wikipedia.org/wiki/Freifunk"
  },
  {
    "description": "Privatsphärerespektierendes, verteiltes, vereinigtes soziales Netzwerk.",
    "slug": "friendica",
    "url": "http://friendica.com/",
    "wikipedia_url": "https://en.wikipedia.org/wiki/Friendica"
  },
  {
    "description": "Leichter und schneller IM-Client für GNU/Linux und Windows—OTR-Unterstützung durch eine Erweiterung.",
    "slug": "gajim",
    "url": "http://gajim.org/",
    "wikipedia_url": "https://en.wikipedia.org/wiki/Gajim"
  },
  {
    "description": "Ein Sub-System zur Festplattenverschlüsselungs unter FreeBSD.",
    "slug": "geli",
    "url": "http://www.freebsd.org/cgi/man.cgi?query=geli&sektion=8",
    "wikipedia_url": "https://en.wikipedia.org/wiki/Geli_%28software%29"
  },
  {
    "description": "Synchronisiert Ordner auf allen Laufwerken Deines Computers.",
    "slug": "git-annex",
    "url": "https://git-annex.branchable.com/",
    "wikipedia_url": ""
  },
  {
    "description": "Self hosted git server.",
    "slug": "gitlab",
    "url": "https://about.gitlab.com/",
    "wikipedia_url": "https://en.wikipedia.org/wiki/GitLab"
  },
  {
    "description": "OpenPGP-Implementierung für viele Frontends, unter anderem Thunderbird/Icedove.",
    "slug": "gnu-privacy-guard",
    "url": "http://www.gnupg.org/",
    "wikipedia_url": "https://en.wikipedia.org/wiki/GNU_Privacy_Guard"
  },
  {
    "description": "GNUnet ist ein 100% freies P2P-Netzwerk.",
    "slug": "gnunet",
    "url": "https://gnunet.org/",
    "wikipedia_url": "https://en.wikipedia.org/wiki/GNUnet"
  },
  {
    "description": "Git Service zum selber hosten, geschrieben in Go, einfach aufzusetzen.",
    "slug": "gogs",
    "url": "http://gogs.io/",
    "wikipedia_url": ""
  },
  {
    "description": "Gpg4win (GNU Privacy Guard for Windows) ist ein Kryptografie-Werkzeugpaket zum Verschlüsseln und Signieren unter Windows (XP, Vista, 7 und 8). Es beinhaltet Softwarewerkzeuge und Anleitungen für E-Mail- und Dateiverschlüsselung und wurde im Auftrag des Bundesamt für Sicherheit in der Informationstechnik (BSI) erstellt. Es benutzt vor allem Kryptografiemethoden auf Grundlage öffentlicher Schlüssel.",
    "slug": "gpg4win",
    "url": "http://www.gpg4win.org/",
    "wikipedia_url": "https://en.wikipedia.org/wiki/Gpg4win"
  },
  {
    "description": "OpenPGP-Add-on für die macOS Mail-App.",
    "slug": "gpgtools",
    "url": "https://gpgtools.org/",
    "wikipedia_url": "https://en.wikipedia.org/wiki/GPGTools"
  },
  {
    "description": "Quelloffenes, freies und neutrales Funknetzwerk für alle.",
    "slug": "guifinet",
    "url": "https://guifi.net/",
    "wikipedia_url": "https://en.wikipedia.org/wiki/Guifi.net"
  },
  {
    "description": "Plattformübergreifender IRC-Client.",
    "notes": "HexChat verschlüsselt IRC nicht standardmäßig. Du musst das FiSHLiM-Plugin für IRC-Nachrichtenverschlüsselung aktivieren.",
    "slug": "hexchat",
    "url": "http://hexchat.github.io/",
    "wikipedia_url": ""
  },
  {
    "description": "Verschlüsselt Deine Kommunikation durch das Verwenden von HTTPS überall.",
    "slug": "https-everywhere",
    "url": "https://www.eff.org/https-everywhere",
    "wikipedia_url": "https://en.wikipedia.org/wiki/HTTPS_Everywhere"
  },
  {
    "description": "Hubzilla is a powerful platform for creating interconnected websites (hubs) featuring a decentralized identity, communications, and permissions framework built using common webserver technology.",
    "slug": "hubzilla",
    "url": "http://hubzilla.org/",
    "wikipedia_url": ""
  },
  {
    "description": "Das Unsichtbare-Internet-Projekt.",
    "slug": "i2p",
    "url": "https://geti2p.net/",
    "wikipedia_url": "https://en.wikipedia.org/wiki/I2P"
  },
  {
    "description": "Eine sehr skalier- und konfigurierbare Nachrichtenplattform, basierend auf MTA-Mail.",
    "slug": "indimail",
    "url": "http://www.indimail.org/",
    "wikipedia_url": "https://en.wikipedia.org/wiki/User:Mbhangui/IndiMail"
  },
  {
    "description": "E-Mail-Serverpakete automatisch in GNU/Linux und BSD installieren und konfigurieren.",
    "slug": "iredmail",
    "url": "http://www.iredmail.org/",
    "wikipedia_url": ""
  },
  {
    "description": "Verschlüsselter Text-, Sprach- und Videochat für mehrere Plattformen.",
    "slug": "jitsi",
    "url": "https://jitsi.org/",
    "wikipedia_url": "https://en.wikipedia.org/wiki/Jitsi"
  },
  {
    "description": "E-Mail-App für Android mit GnuPG-Unterstützung.",
    "slug": "k-9-mail",
    "url": "https://github.com/k9mail/k-9",
    "wikipedia_url": "https://en.wikipedia.org/wiki/K-9_Mail"
  },
  {
    "description": "Quelloffener VoIP/SIP-Server.",
    "slug": "kamailio",
    "url": "http://www.kamailio.org/w/",
    "wikipedia_url": ""
  },
  {
    "description": "Application for people with extremely high demands on secure personal data management. Saves many different types of information such as usernames, passwords, urls, attachments and comments in one single database.",
    "slug": "keepassxc",
    "url": "https://keepassxc.org/",
    "wikipedia_url": "https://en.wikipedia.org/wiki/KeePassXC"
  },
  {
    "description": "Groupware-Server für E-Mail, Kalender, Kontakte und Synchronisierung mit mobilen Geräten.",
    "slug": "kolab",
    "url": "https://kolab.org/",
    "wikipedia_url": "https://en.wikipedia.org/wiki/Kolab"
  },
  {
    "description": "Secure Kolab accounts hosted in Switzerland for 8.99 CHF per month or 4.55 CHF for email-only accounts.",
    "notes": "Kolab Now is hosted in Switzerland and benefits from the [strong Swiss privacy laws](https://KolabNow.com/privacy). It is run exclusively with Free Software and using the service supports the development of [Kolab](https://kolab.org).\n\nAlso, you can export all your data at any time and the terms of service received the best rating from [ToS;DR](http://tosdr.org/#mykolab-com).\n\nThe service uses [Perfect Forward Secrecy](https://kolabnow.com/faq?nid=189) and identifying information [is stripped](https://kolabnow.com/faq?nid=190) from email headers.",
    "slug": "kolabnow",
    "url": "https://kolabnow.com/",
    "wikipedia_url": "https://en.wikipedia.org/wiki/MyKolab"
  },
  {
    "description": "E-Mail, Adressbücher, Kalender und mehr für das K Desktop Environment (KDE) mit PGP-Unterstützung.",
    "slug": "kontact",
    "url": "https://userbase.kde.org/Kontact",
    "wikipedia_url": "https://en.wikipedia.org/wiki/Kontact"
  },
  {
    "description": "A GNU/Linux-libre distribution for embedded devices.",
    "slug": "librecmc",
    "url": "https://librecmc.org/",
    "wikipedia_url": "https://en.wikipedia.org/wiki/LibreCMC"
  },
  {
    "description": "Verschlüsselter Audio- und Video.",
    "notes": "Encryption is only supported for voice and video, but not for instant messaging.",
    "slug": "linphone",
    "url": "https://www.linphone.org/",
    "wikipedia_url": "https://en.wikipedia.org/wiki/Linphone"
  },
  {
    "description": "Litecoin (sign : Ł ; code : LTC) ist eine Peer-to-Peer-Kryptowährung und ein quelloffenes Softwareprojekt unter der MIT/X11-Lizens. Inspiriert von (und technisch nahezu identisch mit) Bitcoin (BTC), werden Litecoins auf Basis eines quelloffenen Protokolls erstellt und transferiert, anstatt von einer zentralen Autorität. Litecoin ist von seinen Entwicklern als Verbesserung von Bitcoin vorgesehen und bietet 3 wichtige Unterschiede: schnellere Transaktionen, 4 Mal mehr Geldeinheiten und langsamere Deflation.",
    "notes": "Bitte sei Dir bewusst, dass neue digitale Währungen starken Wertschwankungen ausgesetzt sein können. Vollständiger Verlusst deiner Investitionen ist aus diversen Gründen möglich (Softwarefehler oder Angriffe, Identitätsdiebstahl, etc.). Sei vorsichtig!",
    "slug": "litecoin",
    "url": "https://litecoin.org/",
    "wikipedia_url": "https://en.wikipedia.org/wiki/Litecoin"
  },
  {
    "description": "OpenPGP Verschlüsselung Deiner E-Mails für vieler Webmailanbieter.",
    "slug": "mailvelope",
    "url": "http://www.mailvelope.com/",
    "wikipedia_url": ""
  },
  {
    "description": "Freier, virtueller Globus und Welt-Atlas.",
    "slug": "marble",
    "url": "http://marble.kde.org/",
    "wikipedia_url": "https://en.wikipedia.org/wiki/Marble_%28software%29"
  },
  {
    "description": "Quelloffene, selbstgehostete Webanalysen.",
    "slug": "matomo",
    "url": "https://matomo.org/",
    "wikipedia_url": "https://en.wikipedia.org/wiki/Matomo_(software)"
  },
  {
    "description": "Dezentralisierte Medienveröffentlichungs-Plattform.",
    "notes": "MediaGoblin does not encrypt any of your data by default.",
    "slug": "mediagoblin",
    "url": "http://mediagoblin.org/",
    "wikipedia_url": "https://en.wikipedia.org/wiki/MediaGoblin"
  },
  {
    "description": "Meta-Suchmaschine, die Deine Suchanfrage an verschiedene Suchanbieter weiterleitet.",
    "notes": "No use of Cookies, Session IDs or anything else. Free Proxy, server side anonymisation of IP addresses, Tor branch.",
    "slug": "metager",
    "url": "https://metager.de",
    "wikipedia_url": "https://de.wikipedia.org/wiki/MetaGer"
  },
  {
    "description": "Auf Prosody basierender XMPP-Server mit umfangreichen Management- und Microblogging-Funktionen.",
    "slug": "metronome",
    "url": "https://metronome.im",
    "wikipedia_url": "https://en.wikipedia.org/wiki/Metronome_IM"
  },
  {
    "description": "Monero is a secure, private, untraceable P2P currency.",
    "notes": "Please note that new, digital currencies may be volatile. Complete loss of your investment is possible for a number of reasons (software errors or attacks, identity theft, etc.). Be prepared!",
    "slug": "monero",
    "url": "https://getmonero.org",
    "wikipedia_url": "https://en.wikipedia.org/wiki/Monero_(cryptocurrency)"
  },
  {
    "description": "Privater, dezentralisierter Sozialnetzwerk-Server.",
    "slug": "movim",
    "url": "https://movim.eu/",
    "wikipedia_url": "https://en.wikipedia.org/wiki/Movim"
  },
  {
    "description": "Schneller, flexibler und sicherer Browser mit einem lebhaften Add-On Ökosystem.",
    "slug": "mozilla-firefox"
  },
  {
    "description": "E-Mail-Anwendung für mehrere Plattformen und E-Mail-Verschlüsselung durch das Enigmail-Addon.",
    "notes": "Thunderbird verschlüsselt deine E-Mails nicht automatisch. [Hier gibt es eine Anleitung](https://securityinabox.org/en/guide/thunderbird/linux/) von Security In A Box für die E-Mail-Verschlüsselung mit Mozilla Thunderbird, GNU Privacy Guard (GPG) und Enigmail.\n\nThunderbird kann optinal mit dem Tor-Netzwerk über das Addon [TorBirdy](https://prism-break.org/de/projects/torbirdy/) verbunden werden.\n\nAuch wenn Thunderbird als Chat- und IRC-Client verwendet werden kann, bietet es dafür keine Verschlüssleung der Chat-Nachrichten.",
    "slug": "mozilla-thunderbird",
    "url": "https://www.mozilla.org/en-US/thunderbird/",
    "wikipedia_url": "https://en.wikipedia.org/wiki/Mozilla_Thunderbird"
  },
  {
    "description": "Verschlüsselter Voicechat mit kurzer Latenzzeit für mehrere Benutzer.",
    "slug": "mumble",
    "url": "http://www.mumble.info/",
    "wikipedia_url": "https://en.wikipedia.org/wiki/Mumble_%28software%29"
  },
  {
    "description": "Verteiltes DNS, basierend auf der Bitcoin-Technologie.",
    "slug": "namecoin",
    "url": "https://namecoin.org",
    "wikipedia_url": "https://en.wikipedia.org/wiki/Namecoin"
  },
  {
    "description": "Aktiviert JavaScript, Java und Flash nur für Seiten, denen Du vertraust.",
    "notes": "Installiere **NoScript** und aktiviere ‘Skripte global verbieteny’ um die Sicherheit deines Browser zu maximieren und ihn für 0day-Angriffen über JavaScript zu schützen. Diese drastische Option wird allerdings viele Webseiten unbenutzbar machen, die viel JavaScript einsetzen.\n\nNoScript bietet darum eine Whitelist an, auf die vertrauenswürdige Webseiten setzen kannst, um JavaScript für sie wieder zu aktivieren. Dies kann allerdings deine [Anonymität gefährden](https://www.torproject.org/docs/faq.html.en#TBBJavaScriptEnabled) wenn du NoScript im **Tor Browser Bundle** benutzt.",
    "slug": "noscript",
    "url": "http://noscript.net/",
    "wikipedia_url": "https://en.wikipedia.org/wiki/NoScript"
  },
  {
    "description": "Ein freier Dynamic-DNS-Service. Nützlich, um einen einfachen DNS-Namen mit Deiner wechselnden / schlecht zu merkenden IP-Adresse zu aktualisieren. Da wir Standard-Protokolle nutzen, unterstützen wir viele Router / Update-Clients und helfen Dir sogar aktiv, diese zu konfigurieren. Wir achten auf Sicherheit, Privatsphäre und Komfort. Du kannst einfach den freien Service auf unserer Webseite benutzen oder, wenn Du das bevorzugst, auch die Software auf Deinem eigenen Server betreiben.",
    "slug": "nsupdate-info",
    "url": "https://nsupdate.info/",
    "wikipedia_url": "https://en.wikipedia.org/wiki/Nsupdate"
  },
  {
    "description": "Sicherer auf iOS-Geräten durch's Netz surfen mittels Tor.",
    "slug": "onion-browser",
    "url": "https://mike.tig.as/onionbrowser/",
    "wikipedia_url": ""
  },
  {
    "description": "OpenKeychain ist eine OpenPGP-Implementierung für Android.",
    "slug": "open-keychain",
    "url": "https://www.openkeychain.org/",
    "wikipedia_url": ""
  },
  {
    "description": "Die Open Source Routing Machine (OSRM) ist eine C++ Implementierung eines hoch-performanten Streckenfindungsalgorithmus im Straßennetz. Lizensiert unter der großzügigen 2-Klausel BSD-Lizenz ist OSRM ein freier Netzwerkdienst, der Linux, FreeBSD, Windows und Mac unterstützt.",
    "notes": "OSRM sollte lokal installiert und betrieben werden, damit Datenlecks von unverschlüsselten Onlinediensten vermieden werden.",
    "slug": "open-source-routing-machine",
    "url": "http://project-osrm.org/",
    "wikipedia_url": "https://en.wikipedia.org/wiki/Open_Source_Routing_Machine"
  },
  {
    "description": "Alternative, quelloffene Webanalysen.",
    "slug": "open-web-analytics",
    "url": "http://www.openwebanalytics.com/",
    "wikipedia_url": "https://en.wikipedia.org/wiki/Open_Web_Analytics"
  },
  {
    "description": "Ein sicheres Betriebssystem auf BSD-Basis.",
    "slug": "openbsd",
    "url": "http://openbsd.org/",
    "wikipedia_url": "https://en.wikipedia.org/wiki/OpenBSD"
  },
  {
    "description": "Plattformübergreifender, in Java geschriebener XMPP-Server.",
    "slug": "openfire",
    "url": "http://www.igniterealtime.org/projects/openfire/",
    "wikipedia_url": "https://en.wikipedia.org/wiki/Openfire"
  },
  {
    "description": "Offener, demokratischer und unzensierter DNS-Anbieter.",
    "notes": "OpenNIC has not adopted an official policy concerning log query privacy/anonymization. More information [here](https://wiki.opennic.org/opennic:tier2).",
    "slug": "opennic",
    "url": "https://www.opennic.org/",
    "wikipedia_url": "https://en.wikipedia.org/wiki/OpenNIC"
  },
  {
    "description": "Freier und gemeinschaftlicher Kartendienst.",
    "slug": "openstreetmap",
    "url": "http://www.openstreetmap.org/",
    "wikipedia_url": "https://en.wikipedia.org/wiki/OpenStreetMap"
  },
  {
    "description": "Freier VPN-Client-Software.",
    "slug": "openvpn",
    "url": "http://openvpn.net/index.php/open-source.html",
    "wikipedia_url": "https://en.wikipedia.org/wiki/OpenVPN"
  },
  {
    "description": "A GNU/Linux distribution for embedded devices.",
    "slug": "openwrt",
    "url": "https://openwrt.org/",
    "wikipedia_url": "https://en.wikipedia.org/wiki/OpenWrt"
  },
  {
    "description": "Die Features und Funktionalitäten für Android.",
    "slug": "orbot",
    "url": "https://guardianproject.info/apps/orbot/",
    "wikipedia_url": "https://en.wikipedia.org/wiki/Orbot"
  },
  {
    "description": "OsmAnd (OSM Automated Navigation Directions) ist eine Karten- und Navigationsapp auf Basis der OpenStreetMap-Daten.",
    "slug": "osmand",
    "url": "http://osmand.net/",
    "wikipedia_url": "https://en.wikipedia.org/wiki/OsmAnd"
  },
  {
    "description": "Password Safe (Android Port). Stores passwords, site URLs, email addresses, notes and much more into encrypted container file, so you only need to remember one master password. Can generate random passwords (with optional site-specific policies).",
    "slug": "passwdsafe",
    "url": "http://passwdsafe.sourceforge.net/",
    "wikipedia_url": ""
  },
  {
    "description": "Simple password manager using gpg and ordinary unix directories.",
    "slug": "password-store",
    "url": "https://www.passwordstore.org/",
    "wikipedia_url": ""
  },
  {
    "description": "Password Safe (Windows/Linux), designed by Bruce Schneier. Stores passwords, site URLs, email addresses, notes and much more into encrypted container file, so you only need to remember one master password. Can generate random passwords (with optional site-specific policies).",
    "slug": "passwordsafe",
    "url": "http://pwsafe.org/",
    "wikipedia_url": "https://en.wikipedia.org/wiki/Password_Safe"
  },
  {
    "description": "Selbstgehostete Fotogalerie-Plattform.",
    "notes": "Piwigo does not encrypt any of your data by default.",
    "slug": "piwigo",
    "url": "http://piwigo.org/",
    "wikipedia_url": "https://en.wikipedia.org/wiki/Piwigo"
  },
  {
    "description": "Tracking blocker that tries to learn who is spying on you and then blocks these ads and invisible trackers.",
    "notes": "Privacy Badger may be less effective than a classic blacklist based solution such as uBlock or Disconnect. Advertisers can automatically unblock themselves by claiming not to track you.",
    "slug": "privacy-badger",
    "url": "https://www.eff.org/privacybadger",
    "wikipedia_url": "https://en.wikipedia.org/wiki/Privacy_Badger"
  },
  {
    "description": "Flexibler und leichter, in Lua geschriebener XMPP-Server.",
    "slug": "prosody",
    "url": "https://prosody.im/",
    "wikipedia_url": "https://en.wikipedia.org/wiki/Prosody_%28software%29"
  },
  {
    "description": "Multi-Plattform IM Client für erfahrene Benutzer mit eingebauter OTR-Unterstützung.",
    "slug": "psi",
    "url": "http://psi-plus.com/",
    "wikipedia_url": "https://en.wikipedia.org/wiki/Psi_%28instant_messaging_client%29"
  },
  {
    "description": "Selbst-gehosteter sozialer Streamserver.",
    "slug": "pumpio",
    "url": "http://pump.io/",
    "wikipedia_url": "https://en.wikipedia.org/wiki/Pump.io"
  },
  {
    "description": "Verwandelt jeden Server in eine File-Sharing-Plattform.",
    "slug": "pydio",
    "url": "http://pyd.io/",
    "wikipedia_url": ""
  },
  {
    "description": "Ein Fedora/Xen-basierendes Betriebssystem, das designt wurde, um starke Sicherheit durch Isolation zu bieten.",
    "slug": "qubes",
    "url": "https://www.qubes-os.org/",
    "wikipedia_url": "https://en.wikipedia.org/wiki/Qubes_OS"
  },
  {
    "description": "Völlig freie Android-Distribution, die auf LineageOS aufbaut.",
    "slug": "replicant",
    "url": "http://replicant.us/",
    "wikipedia_url": "https://en.wikipedia.org/wiki/Replicant_%28operating_system%29"
  },
  {
    "description": "Sichere P2P-Kommunikationsplattform, die IM, Foren, VoIP, File Sharing und mehr bietet.",
    "notes": "Bitte beachte, dass RetroShare bisher nicht von professionellen Computersicherheitsexperten auf mögliche Sicherheitslücken hin überprüft wurde.\n\nJedoch ist es die vermutlich einfachste Lösung um ein verschlüsseltes soziales Netzwerk zu starten, ohne einen eigenen Server betreiben zu müssen.",
    "slug": "retroshare",
    "url": "http://retroshare.net",
    "wikipedia_url": "https://en.wikipedia.org/wiki/RetroShare"
  },
  {
    "description": "Ring is a secure and distributed voice, video and chat communication platform that requires no centralized server and leaves the power of privacy in the hands of the user.",
    "slug": "ring",
    "url": "https://ring.cx/",
    "wikipedia_url": "https://en.wikipedia.org/wiki/Ring_(software)"
  },
  {
    "description": "Riot is a secure collaboration app for group chat, file transfer and voice/video conferencing built on the decentralized Matrix ecosystem, providing bridges and integrations to centralized services such as IRC, Slack, Gitter, etc",
    "notes": "End-to-end encryption is in beta on Web as of Nov 5th 2016, with other platforms following week of Nov 14th",
    "slug": "riot",
    "url": "https://riot.im/",
    "wikipedia_url": "https://en.wikipedia.org/wiki/Matrix_(communication_protocol)"
  },
  {
    "description": "Sichere und private Kommunikationsmöglichkeiten für Menschen, die an einem freiheitlichen sozialen Wechsel arbeiten.",
    "notes": "Auf Riseups E-Mail-Dienst kann auch über einen Tor Hidden Service zugegriffen werden, [siehe](https://www.riseup.net/en/tor#riseups-tor-hidden-services).",
    "slug": "riseup",
    "url": "https://riseup.net/en",
    "wikipedia_url": ""
  },
  {
    "description": "Modulares Mehrzweck-Kommunikationswerkzeug.",
    "slug": "salut-a-toi",
    "url": "http://sat.goffi.org/",
    "wikipedia_url": ""
  },
  {
    "description": "The personal, minimalist, super-fast, no-database delicious clone.",
    "slug": "shaarli",
    "url": "https://github.com/shaarli/Shaarli/",
    "wikipedia_url": ""
  },
  {
    "description": "Ein Fork von TextSecure mit SMS Verschlüsselung.",
    "slug": "silence",
    "url": "https://silence.im/",
    "wikipedia_url": ""
  },
  {
    "description": "Selbst-gehostete Versionskontrolle und Dateisynchronisierung.",
    "slug": "sparkleshare",
    "url": "http://sparkleshare.org/",
    "wikipedia_url": "https://en.wikipedia.org/wiki/SparkleShare"
  },
  {
    "description": "Private, aufzeichnungsfreie Websuchen.",
    "notes": "Startpage ist ein Softwaredienst ([SaaS](https://de.wikipedia.org/wiki/SaaS)), der in den USA und den Niederlanden gehostet wird. Er bietet anonymisierte Google Web- und Bildersuche durch einen freien Proxy. Its sibling project ixquick.eu, however, offer results from other search engine.\n\n Ixquick also provides the stand-alone Ixquick Proxy service that allows users to open search results via proxy.\n\n As of February 19, 2015, Startpage.com is the default search engine in the Tor Browser.",
    "slug": "startpage",
    "url": "https://startpage.com/",
    "wikipedia_url": "https://en.wikipedia.org/wiki/Ixquick#Startpage.com"
  },
  {
    "description": "Continuous decentralized file synchronization.",
    "notes": "Syncthing is a self-hosted file sharing platform, so none of your data is ever stored anywhere other than on your computers. There is no central server that might be compromised, legally or illegally. All communication is secured using TLS. The encryption used includes perfect forward secrecy to prevent any eavesdropper from gaining access to your data. Every node is identified by a strong cryptographic certificate. Only nodes you have explicitly allowed can connect to your cluster.",
    "slug": "syncthing",
    "url": "https://syncthing.net/",
    "wikipedia_url": "https://en.wikipedia.org/wiki/Syncthing"
  },
  {
    "description": "Freies und offenes Cloud-Speichersystem.",
    "slug": "tahoe-lafs",
    "url": "https://tahoe-lafs.org/trac/tahoe-lafs",
    "wikipedia_url": "https://en.wikipedia.org/wiki/Tahoe-LAFS"
  },
  {
    "description": "Live-CD/USB, entwickelt zum Schutz Deiner Privatsphäre.",
    "slug": "tails",
    "url": "https://tails.boum.org/index.de.html",
    "wikipedia_url": "https://de.wikipedia.org/wiki/The_Amnesic_Incognito_Live_System"
  },
  {
    "description": "Plattformübergreifender, in Java geschriebener XMPP-Server.",
    "slug": "tigase",
    "url": "http://www.tigase.org/",
    "wikipedia_url": "https://en.wikipedia.org/wiki/Tigase"
  },
  {
    "description": "Freie VPN Lösung, die Tunnelung und Verschlüsselung verwendet, um ein sicheres privates Netzwerk zu erstellen, welches ohne zentralen Server auskommt.",
    "slug": "tinc",
    "url": "http://tinc-vpn.org/",
    "wikipedia_url": "https://en.wikipedia.org/wiki/Tinc_%28protocol%29"
  },
  {
    "description": "Tor (zuvor TOR, ein Akronym für The Onion Router) ist eine freie Software, die Anonymität im Internet gewährleistet. Dazu wird der Datenverkehr der Nutzer durch ein freies, weltweites, von Freiwilligen betriebenes Netzwerk aus über 4000 Relais geleitet, sodass ihr Aufenthaltsort und Surfverhalten vor Netzwerküberwachung und Verkehrsanalyse verschleiert wird. Die Benutzung von Tor erschwert die Zurückverfolgung der Internetaktivität (einschließlich Webseitenbesuche, Veröffentlichung von Online-Beiträgen, Direktnachrichten und anderer Kommunikationsformen) zu einzelnen Nutzern und schützt so deren Privatssphäre, Freiheit, vertrauliche Geschäftsführung vor Überwachung.",
    "slug": "tor",
    "url": "https://www.torproject.org/",
    "wikipedia_url": "https://de.wikipedia.org/wiki/Tor_%28Netzwerk%29"
  },
  {
    "description": "Verschlüsseltes, anonymes Surfen, unterstützt durch das Tor-Netzwerk.",
    "notes": "Das TBB zum Einloggen auf Webseiten mit deinen realen Informationen zu benutzen, ist widersinnig und könnte die Betrugsssicherung der Webseite auslösen. Stelle bitte sicher, dass HTTPS verwendet wird, bevor du dich über Tor in Webseiten einloggst.\n\nSich auf einer unverschlüsselten HTTP-Seite einzuloggen, ermöglicht dem Tor-Endknoten das Abgreifen deiner Login-Daten.",
    "slug": "tor-browser",
    "url": "https://www.torproject.org/projects/torbrowser.html.en",
    "wikipedia_url": "https://de.wikipedia.org/wiki/Tor_(Netzwerk)#Tor_Browser"
  },
  {
    "description": "Verbinde Dich mit Thunderbird/Icedove durch Tor.",
    "notes": " TorBirdy befindet sich im Beta-Stadium und sollte als Experiment angesehen werden. Bitte stelle sicher, dass du dir der bekannten Probleme und Datenlecks bewusst bist, indem du die Abschnitte “[Before using TorBirdy](https://trac.torproject.org/projects/tor/wiki/torbirdy#BeforeusingTorBirdy)” und “[Known TorBirdy Issues](https://trac.torproject.org/projects/tor/wiki/torbirdy#KnownTorBirdyIssues)” auf der Projektseite liest.",
    "slug": "torbirdy",
    "url": "https://trac.torproject.org/projects/tor/wiki/torbirdy",
    "wikipedia_url": ""
  },
  {
    "description": "Free and open-source, peer-to-peer, encrypted instant messaging and video calling software. The stated goal of the project is to provide secure yet easily accessible communication for everyone.",
    "notes": "Tox is a new encrypted communications system in the making. It is built upon a well known encryption library and has great potential, but it has not yet been audited by security professionals. Use at your own risk. If you decide to try out Tox, be sure to leave them feedback.\n\nTox does not yet have an official GUI but [several are recommended by the development team](https://wiki.tox.chat/Binaries).",
    "slug": "tox",
    "url": "https://tox.chat",
    "wikipedia_url": "https://en.wikipedia.org/wiki/Tox_(software)"
  },
  {
    "description": "Tunnelblick is a free, open source graphic user interface for OpenVPN on macOS. It provides easy control of OpenVPN client and/or server connections.",
    "slug": "tunnelblick",
    "url": "https://tunnelblick.net/",
    "wikipedia_url": ""
  },
  {
    "description": "An efficient blocker for Firefox and Chromium. Fast and lean.",
    "slug": "ublock-origin",
    "url": "https://github.com/gorhill/uBlock",
    "wikipedia_url": "https://en.wikipedia.org/wiki/UBlock#uBlock_Origin"
  },
  {
    "description": "Websuche, die besonders neutrale Suchergebnisse liefert und die Privatsphäre schützt.",
    "notes": "Unbubble ist eine Internet-Suchmaschine aus Deutschland mit Unterstützung für 8 Sprachen. Sie hat zum Ziel, möglichst neutrale Suchergebnisse zu erzeugen. Datenschutz und Privatsphäre werden durch verschiedene Maßnahmen sichergestellt, über die auf der Website ausführlich informiert wird.",
    "slug": "unbubble",
    "url": "https://unbubble.eu",
    "wikipedia_url": ""
  },
  {
    "description": "Client-side encrypted image host web server.",
    "notes": "Up1 is a simple host that client-side encrypts images, text, and other data, and stores them, with the server knowing nothing about the contents. It has the ability to view images, text with syntax highlighting, short videos, and arbitrary binaries as downloadables.",
    "slug": "up1",
    "url": "https://github.com/Upload/Up1/blob/master/README.md",
    "wikipedia_url": ""
  },
  {
    "description": "wallabag is a self hostable application for saving web pages. Unlike other services, wallabag is free (as in freedom) and open source.",
    "slug": "wallabag",
    "url": "https://www.wallabag.org/",
    "wikipedia_url": ""
  },
  {
    "description": "Erweiterbarer und anpassbarer CLI Chat-Client für IRC und XMPP/Jabber.",
    "slug": "weechat",
    "url": "http://www.weechat.org/",
    "wikipedia_url": "https://en.wikipedia.org/wiki/WeeChat"
  },
  {
    "description": "The most comprehensive and integrated Free / Libre / Open Source software suite ever developed.",
    "slug": "wikisuite",
    "url": "http://wikisuite.org/",
    "wikipedia_url": ""
  },
  {
    "description": "Selbstgehostetes Website-/Blog-CMS.",
    "notes": "WordPress verschlüsselt standardmäßig keine deiner Daten.\n\nDie Benutzung von Avataren in WordPress aktiviert Gravatar, was deine E-Mail-Adresse an gravatar.com sendet. Diese Standardverhalten kann unter “Einstellungen > Diskussionen > Avatare”.\n\nDas Standardtheme von WordPress zwingt deine Benutzer zum Download von Google Schriftarten. Überlege dire darum, auf ein selbst-gehostetes Theme zu wechseln. Du kannst zum Beispiel auch das Plugin<a href='http://wordpress.org/plugins/disable-google-fonts/'>“Disable Google Fonts”</a> installieren um dieses Datenleck abzustellen.",
    "slug": "wordpress",
    "url": "https://wordpress.org/",
    "wikipedia_url": "https://en.wikipedia.org/wiki/WordPress"
  },
  {
    "description": "Selbstgehostetes Medienmanagementsystem.",
    "notes": "Zenphoto does not encrypt any of your data by default.",
    "slug": "zenphoto",
    "url": "http://www.zenphoto.org/",
    "wikipedia_url": ""
  }
]
