[
  {
    "description": "VM-ystävällinen Debian-pohjainen GNU/Linux-jakelu. Järjestelmä pyrkii olemaan turvallinen ja yksityinen mm. Tor-reititystä tukemalla.",
    "notes": "Whonix on suunniteltu toimimaan virtuaalikoneena, ohjelmassa kuten [VirtualBox](https://www.virtualbox.org/). VirtualBox on mahdollista asentaa Windows, Linux, macOS, and Solaris käyttöjärjestelmiin. Tämä tarkoittaa, että jos joudut jostain syystä käyttämään Windowsia tai macOS:ää, voit asentaa VirtualBoxin ja käyttää sitä vahvistaaksesi yksityisyyttäsi ja turvallisuuttasi. Huomaa, että järjestelmän tietoturva ja yksityisyys voivat riippua hypervisorin isäntäkäyttöjärjestelmästä."
  },
  {
    "description": " Android application compatible with ZX2C4's Pass command line application.",
    "slug": "android-password-store",
    "url": "https://github.com/zeapo/Android-Password-Store/blob/master/README.md",
    "wikipedia_url": ""
  },
  {
    "description": "PBX implementaatio VoIP/SIP tuella.",
    "slug": "asterisk",
    "url": "http://www.asterisk.org/",
    "wikipedia_url": "https://en.wikipedia.org/wiki/Asterisk_%28PBX%29"
  },
  {
    "description": "Laaja kokoelma vapaita, yksityisyyskeskeisiä palveluita.",
    "slug": "autistici-inventati",
    "url": "https://www.autistici.org/",
    "wikipedia_url": ""
  },
  {
    "description": "P2P-pohjainen, maailmanlaajuisesti hajautettu valuutta.",
    "notes": "Huomaa, että uudet digitaaliset valuutat saattavat olla arvaamattomia. Investointi saatetaan menettää monista syistä (ohjelmistovirheet, identiteettivarkaudet jne). Ole varuillasi!",
    "slug": "bitcoin",
    "url": "http://bitcoin.org",
    "wikipedia_url": "https://en.wikipedia.org/wiki/Bitcoin"
  },
  {
    "description": "Salattu, ja hajautettu P2P viestintäpalvelu, jonka teknologia pohjautuu Bitcoiniin.",
    "notes": "Bitmessage on lupaava vaihtoehto sähköpostille, mutta tietoturva-alan asiantuntijat eivät ole vielä auditoineet sitä. Käytä ohjelmaa omalla vastuulla. Jos päätät kokeilla Bitmessagea, varmista että luot täysin satunnaisen ID:n välttääksesi ID-tunnusten yhteentörmäyksen.",
    "slug": "bitmessage",
    "url": "https://bitmessage.org/wiki/Main_Page",
    "wikipedia_url": "https://en.wikipedia.org/wiki/Bitmessage"
  },
  {
    "description": "Yritysluokan tietojenkäsittelyalusta, jonka binäärit sopivat 100% RHEL:in kanssa.",
    "slug": "centos",
    "url": "https://www.centos.org/",
    "wikipedia_url": "https://en.wikipedia.org/wiki/CentOS"
  },
  {
    "description": "OMEMO or OTR encrypted IM for iOS.",
    "slug": "chatsecure",
    "url": "https://chatsecure.org/",
    "wikipedia_url": "https://en.wikipedia.org/wiki/The_Guardian_Project_(software)#ChatSecure"
  },
  {
    "description": "Cjdns on verkkoprotokolla, digitaalisten asetusten järjestelmä viestien välittämiseen tietokoneiden välillä. Sen sijaan, että tietokoneet yhdistäisivät julkisen, jaetun IP-osoitteen kautta, cjdns antaa ainoastaan kryptografisesti toisilleen autentikoituneiden tietokoneiden keskustella keskenään. ",
    "slug": "cjdns",
    "url": "https://github.com/cjdelisle/cjdns",
    "wikipedia_url": "https://en.wikipedia.org/wiki/Cjdns"
  },
  {
    "description": "Conversations is an open source XMPP/Jabber client for Android 4.0+ smart phones.",
    "slug": "conversations",
    "url": "https://github.com/siacs/Conversations",
    "wikipedia_url": ""
  },
  {
    "description": "Itsehallinnoitava henkilökohtainen palvelualusta (PaaS).",
    "slug": "cozy",
    "url": "http://cozy.io/",
    "wikipedia_url": ""
  },
  {
    "description": "Selainlaajennos joka mahdollistaa yksityisen ja päästä päähän salatun pikaviestinnän selaimesta käsin. Cryptocat salaa viestiliikenteen “huoneissa” olevien kesken, tai vaihtoehtoisesti salaa Facebook-kontaktien kanssa käydyt keskustelut.",
    "slug": "cryptocat",
    "url": "https://crypto.cat/",
    "wikipedia_url": "https://en.wikipedia.org/wiki/Cryptocat"
  },
  {
    "description": "Self-hosted, zero-knowledge, real-time collaborative documents.",
    "notes": "Encryption carried out in your web browser protects the data from the server, the cloud, and the NSA. The secret encryption key is stored in the URL fragment identifier which is never sent to the server but is available to javascript, so by sharing the URL, you give authorization to others who want to participate. Users must still take care to share links over an end-to-end-encrypted medium for best effect.",
    "slug": "cryptpad",
    "url": "https://cryptpad.fr",
    "wikipedia_url": ""
  },
  {
    "description": "LUKS on mukavuutta ja helppokäyttöisyyttä tarjoava kerros dm-crypt salaukselle.",
    "notes": "Gentoo hallinnoi [opasta](https://wiki.gentoo.org/wiki/DM-Crypt_LUKS) dm-crypt:ille LUKS:illa.\n\nArch Linux myös hallinnoi [opasta](https://wiki.archlinux.org/index.php/Dm-crypt_with_LUKS) dm-crypt:ille LUKS:illa.\n\ndm-crypt on saatabilla myös DragonFly BSD:lle.",
    "slug": "cryptsetup",
    "url": "https://gitlab.com/cryptsetup/cryptsetup",
    "wikipedia_url": "https://en.wikipedia.org/wiki/Dm-crypt"
  },
  {
    "description": "Erittäin suosittu ja eettinen GNU/Linux-jakelu.",
    "slug": "debian",
    "url": "http://debian.org",
    "wikipedia_url": "https://en.wikipedia.org/wiki/Debian"
  },
  {
    "description": "Suojaa sinua “ilmaisten” keskitettyjen sisällön jakeluverkkojen jäljitykseltä. Estää useita sisältöpyyntöjä moniin jakeluverkkoihin ja korvaa ne paikallisilla tiedostoilla estäkseen sivujen hajoamisen. Täydentää muita estolisäosia.",
    "notes": "- Suojaa yksityisyyttä välttämällä isoja jakeluverkkoja jotka väittävät tarjoavansa ilmaisia palveluita.\n- Täydentää muita lisäosia kuten uBlock Origin, Privacy Badger jne.\n- Toimii asennuksen jälkeen ilman tarvetta jälkisäädölle.\n\nDecentraleyes ei ratkaise kaikkea, mutta se suojaa monilta nettisivujen tekemiltä sisältöpyynnöiltä. Halutessasi Decentraleyes estää kaikki pyynnöt joille ei ole tarjolla korvaavaa sisältöä.",
    "slug": "decentraleyes",
    "url": "https://decentraleyes.org",
    "wikipedia_url": ""
  },
  {
    "description": "Yhteisön kehittämä sosiaalinen verkosto.",
    "slug": "diaspora",
    "url": "https://diasporafoundation.org/",
    "wikipedia_url": "https://en.wikipedia.org/wiki/Diaspora_%28software%29"
  },
  {
    "description": "Työkalu joka salaa yhteyden käyttäjän ja DNS resolverin välillä.",
    "slug": "dnscrypt",
    "url": "https://dnscrypt.info",
    "wikipedia_url": ""
  },
  {
    "description": "Hakukone, jonka käyttö ei yksilöi käyttäjää tai jätä jälkiä hausta.",
    "notes": "DuckDuckGo on software-as-a-service (SaaS), jota ylläpidetään ympäri maailmaa. Se tarjoaa käyttäjille anonyymeja hakutuloksia [näistä lähteistä](https://dukgo.com/help/en_US/results/sources). DDG:n lähdekoodi on saatavilla [täältä](https://github.com/duckduckgo).\n\nDuckDuckGo on saatavilla myös Tor-verkon piilopalveluna [3g2upl4pq6kufc4m.onion](http://3g2upl4pq6kufc4m.onion).",
    "slug": "duckduckgo",
    "url": "https://duckduckgo.com/",
    "wikipedia_url": "https://en.wikipedia.org/wiki/DuckDuckGo"
  },
  {
    "description": "POSIX-yhteensopiva yritystason kryptografinen (stacked-tyyppinen) tiedostojärjestelmä GNU/Linux järjestelmiin.",
    "slug": "ecryptfs",
    "url": "http://ecryptfs.org/",
    "wikipedia_url": "https://en.wikipedia.org/wiki/ECryptfs"
  },
  {
    "description": "Erlang/OTP:llä kirjoitettu XMPP-palvelin GNU/Linux ja macOS käyttöjärjestelmiin.",
    "slug": "ejabberd",
    "url": "http://www.ejabberd.im/",
    "wikipedia_url": "https://en.wikipedia.org/wiki/Ejabberd"
  },
  {
    "description": "Tiedostopohjainen salaustyökalu Linux, Mac OS ja Windows käyttöjärjestelmiin.",
    "notes": "EncFS on saatavilla Windowsille “encfs4win” portattuna.",
    "slug": "encfs",
    "url": "https://vgough.github.io/encfs/",
    "wikipedia_url": "https://en.wikipedia.org/wiki/EncFS"
  },
  {
    "description": "OpenPGP-lisäosa Thunderbirdille ja Icedovelle.",
    "notes": "[Tässä](https://securityinabox.org/en/guide/thunderbird/linux/) on Security In A Box:n opas sähköpostin salaamiseen Mozilla Thunderbird:illa yhdessä GNU Privacy Guard:in (GPG) ja and Enigmail:in kanssa. Lue myös Free Software Foundation toimittama [sähköpostin itsepuolustusopas](https://emailselfdefense.fsf.org) oppiaksesi miten sähköpostit salataan.",
    "slug": "enigmail",
    "url": "https://www.enigmail.net/home/index.php",
    "wikipedia_url": "https://en.wikipedia.org/wiki/Enigmail"
  },
  {
    "description": "Useaa käyttäjää tukeva verkkopohjainen taulukkolaskentasovellus.",
    "notes": "EtherCalc verkkopalvelu salaa verkkoyhteyden TLS:llä, mutta kuka tahansa URLin enumeroiva pystyy lukemaan viestin. Jos olet huolissasi yksityisyydestäsi, lataa ja asenna oma EtherCalc palvelin.",
    "slug": "ethercalc",
    "url": "http://ethercalc.net/",
    "wikipedia_url": ""
  },
  {
    "description": "Vapaa sähköposti- ja kalenterisovellus.",
    "slug": "evolution",
    "url": "https://projects.gnome.org/evolution/",
    "wikipedia_url": "https://en.wikipedia.org/wiki/Evolution_%28software%29"
  },
  {
    "description": "Vapaat, avoimen lähdekoodin sovellukset Androidille.",
    "slug": "f-droid",
    "url": "https://f-droid.org/",
    "wikipedia_url": "https://en.wikipedia.org/wiki/F-Droid"
  },
  {
    "description": "Vakaa, nopea ja tehokas GNU/Linux-jakelu.",
    "slug": "fedora",
    "url": "https://fedoraproject.org/",
    "wikipedia_url": "https://es.wikipedia.org/wiki/Fedora_%28distribuci%C3%B3n_Linux%29"
  },
  {
    "description": "Vapaa, erittäin turvallinen BSD-pohjainen käyttöjärjestelmä.",
    "slug": "freebsd",
    "url": "https://www.freebsd.org/",
    "wikipedia_url": "https://en.wikipedia.org/wiki/FreeBSD"
  },
  {
    "description": "FreedomBox integroi yksityisyyden suojaavia toimintoja yksinkertaiseen palvelimeen tuoden yksityisyyden kaikille.",
    "slug": "freedombox",
    "url": "https://www.freedomboxfoundation.org/",
    "wikipedia_url": "https://en.wikipedia.org/wiki/FreedomBox"
  },
  {
    "description": "Freenet on vapaa ohjelmisto jolla voi jakaa anonyymisti tiedostoja, ja jolla voi selata ja julkaista verkkosivuja Freenetin sisällä, sekä keskustella foorumeilla, sensuurivapaasti. Freenet on hajautettu ja “darknet” asetuksella, jossa ystävät yhdistävät toisiinsa, erittäin vaikea havaita.",
    "slug": "freenet",
    "url": "https://freenetproject.org/",
    "wikipedia_url": "https://en.wikipedia.org/wiki/Freenet"
  },
  {
    "description": "FreeOTP is a two-factor authentication application for systems utilizing one-time password protocols.",
    "notes": "FreeOTP adds a second layer of security for your online accounts. This works by generating one-time passwords on your mobile devices which can be used in conjunction with your normal password to make your login nearly impossible to hack.",
    "slug": "freeotp",
    "url": "https://freeotp.github.io/",
    "wikipedia_url": "https://en.wikipedia.org/wiki/FreeOTP"
  },
  {
    "description": "Monialustainen kytkinohjelmisto VoIP/SIP tuella.",
    "slug": "freeswitch",
    "url": "https://www.freeswitch.org/",
    "wikipedia_url": "https://en.wikipedia.org/wiki/FreeSWITCH"
  },
  {
    "description": "Epäkaupallinen ruohonjuuriliike joka pyrkii tukemaan avoimia radioverkkoja ympäri maailmaa.",
    "slug": "freifunk",
    "url": "http://wiki.freifunk.net/Kategorie:English",
    "wikipedia_url": "https://en.wikipedia.org/wiki/Freifunk"
  },
  {
    "description": "Avoimen lähdekoodin ilmainen sosiaalinen palvelin.",
    "slug": "friendica",
    "url": "http://friendica.com/",
    "wikipedia_url": "https://en.wikipedia.org/wiki/Friendica"
  },
  {
    "description": "Kevyt ja nopea pikaviestiohjelma GNU/Linux ja Windows käyttöjärjestelmiin—OTR -salaus on saatavilla liitännäisenä.",
    "slug": "gajim",
    "url": "http://gajim.org/",
    "wikipedia_url": "https://en.wikipedia.org/wiki/Gajim"
  },
  {
    "description": "FreeBSD:n levysalausjärjestelmä.",
    "slug": "geli",
    "url": "http://www.freebsd.org/cgi/man.cgi?query=geli&sektion=8",
    "wikipedia_url": "https://en.wikipedia.org/wiki/Geli_%28software%29"
  },
  {
    "description": "Synkronoi tiedostot ja kansiot tietokoneiden ja verkkolevyjen välillä.",
    "slug": "git-annex",
    "url": "https://git-annex.branchable.com/",
    "wikipedia_url": ""
  },
  {
    "description": "Itse hallinnoitu Git-palvelin.",
    "slug": "gitlab",
    "url": "https://about.gitlab.com/",
    "wikipedia_url": "https://en.wikipedia.org/wiki/GitLab"
  },
  {
    "description": "Vapaa OpenPGP-sovellus.",
    "slug": "gnu-privacy-guard",
    "url": "http://www.gnupg.org/",
    "wikipedia_url": "https://en.wikipedia.org/wiki/GNU_Privacy_Guard"
  },
  {
    "description": "GNUnet on täysin vapaa P2P verkko.",
    "slug": "gnunet",
    "url": "https://gnunet.org/",
    "wikipedia_url": "https://en.wikipedia.org/wiki/GNUnet"
  },
  {
    "description": "Painless self hosted git service written in Go.",
    "slug": "gogs",
    "url": "http://gogs.io/",
    "wikipedia_url": ""
  },
  {
    "description": "Gpg4win on asennuspaketti Windowsille (XP, Vista, 7 and 8), joka sisältää työkaluja sekä Saksan tietoturvaviraston käyttöohjeita sähköpostin ja tiedostojen salaamiseen. Gpg4win ja sen kaikki työkalut ovat vapaita ja avointa lähdekoodia. Ohjelmisto käyttää pääasiallisesti julkisen avaimen kryptografiaa tiedostojen salaamiseen sekä digitaalisiin allekirjoituksiin.",
    "slug": "gpg4win",
    "url": "http://www.gpg4win.org/",
    "wikipedia_url": "https://en.wikipedia.org/wiki/Gpg4win"
  },
  {
    "description": "OpenPGP laajennus Apple macOS Mail:ille.",
    "slug": "gpgtools",
    "url": "https://gpgtools.org/",
    "wikipedia_url": "https://en.wikipedia.org/wiki/GPGTools"
  },
  {
    "description": "Avoin, vapaa ja neutraali langaton verkko kaikille.",
    "slug": "guifinet",
    "url": "https://guifi.net/",
    "wikipedia_url": "https://en.wikipedia.org/wiki/Guifi.net"
  },
  {
    "description": "Cross-platform IRC-asiakasohjelmisto.",
    "notes": "HexChat ei salaa IRC-keskustelua oletuksena. IRC-viestien salaamista varten on kytkettävä päälle FisHLiM laajennus.",
    "slug": "hexchat",
    "url": "http://hexchat.github.io/",
    "wikipedia_url": ""
  },
  {
    "description": "Pyrkii käyttämään salattua yhteyttä verkkosivustoon jos sellainen on ylipäätään tarjolla.",
    "slug": "https-everywhere",
    "url": "https://www.eff.org/https-everywhere",
    "wikipedia_url": "https://en.wikipedia.org/wiki/HTTPS_Everywhere"
  },
  {
    "description": "Hubzilla is a powerful platform for creating interconnected websites (hubs) featuring a decentralized identity, communications, and permissions framework built using common webserver technology.",
    "slug": "hubzilla",
    "url": "http://hubzilla.org/",
    "wikipedia_url": ""
  },
  {
    "description": "I2P on anonyymi verkko, joka antaa ohjelmien kommunikoida keskenään salatusti ja anonyymisti. Kaikki viestintä on päästä päähän salattu. I2P:ssä asiakasohjelmat muodostavat tunneleita I2P reitittimen läpi, joiden kautta viestit välittyvät lopulta perille. Verkkoon osallistuvat voivat lisätä tunnelin pituutta vahvistaakseen anonymiteettiä latenssin ja kaistanleveyden kustannuksella.",
    "slug": "i2p",
    "url": "https://geti2p.net/",
    "wikipedia_url": "https://en.wikipedia.org/wiki/I2P"
  },
  {
    "description": "Erittäin skaalautuva ja konfiguroitava viestintäalusta, joka pohjautuu MTA qmail:iin.",
    "slug": "indimail",
    "url": "http://www.indimail.org/",
    "wikipedia_url": "https://en.wikipedia.org/wiki/User:Mbhangui/IndiMail"
  },
  {
    "description": "Asenna ja konfiguroi sähköpostipalvelinpaketit automaattisesti GNU/Linux ja BSD järjestelmiin.",
    "slug": "iredmail",
    "url": "http://www.iredmail.org/",
    "wikipedia_url": ""
  },
  {
    "description": "OTR ja ZRTP protokollilla päästä päähän salatut viesti-, ääni- ja videokeskustelut.",
    "slug": "jitsi",
    "url": "https://jitsi.org/",
    "wikipedia_url": "https://en.wikipedia.org/wiki/Jitsi"
  },
  {
    "description": "Avoimen lähdekoodin sähköpostisovellus Androidille, PGP-tuella.",
    "slug": "k-9-mail",
    "url": "https://github.com/k9mail/k-9",
    "wikipedia_url": "https://en.wikipedia.org/wiki/K-9_Mail"
  },
  {
    "description": "Avoimen lähdekoodin VoIP/SIP-palvelin.",
    "slug": "kamailio",
    "url": "http://www.kamailio.org/w/",
    "wikipedia_url": ""
  },
  {
    "description": "Application for people with extremely high demands on secure personal data management. Saves many different types of information such as usernames, passwords, urls, attachments and comments in one single database.",
    "slug": "keepassxc",
    "url": "https://keepassxc.org/",
    "wikipedia_url": "https://en.wikipedia.org/wiki/KeePassXC"
  },
  {
    "description": "Groupware ratkaisu sähköpostille, tiedostoille, kalentereille, osoitekirjoille ja mobiilisynkronoinnille.",
    "slug": "kolab",
    "url": "https://kolab.org/",
    "wikipedia_url": "https://en.wikipedia.org/wiki/Kolab"
  },
  {
    "description": "Secure Kolab accounts hosted in Switzerland for 8.99 CHF per month or 4.55 CHF for email-only accounts.",
    "notes": "Kolab Now is hosted in Switzerland and benefits from the [strong Swiss privacy laws](https://KolabNow.com/privacy). It is run exclusively with Free Software and using the service supports the development of [Kolab](https://kolab.org).\n\nAlso, you can export all your data at any time and the terms of service received the best rating from [ToS;DR](http://tosdr.org/#mykolab-com).\n\nThe service uses [Perfect Forward Secrecy](https://kolabnow.com/faq?nid=189) and identifying information [is stripped](https://kolabnow.com/faq?nid=190) from email headers.",
    "slug": "kolabnow",
    "url": "https://kolabnow.com/",
    "wikipedia_url": "https://en.wikipedia.org/wiki/MyKolab"
  },
  {
    "description": "KDE-sähköpostiohjelma GPG-tuella.",
    "slug": "kontact",
    "url": "https://userbase.kde.org/Kontact",
    "wikipedia_url": "https://en.wikipedia.org/wiki/Kontact"
  },
  {
    "description": "Sulautettuihin järjestelmiin tarkoitettu GNU/Linux-libre jakelu.",
    "slug": "librecmc",
    "url": "https://librecmc.org/",
    "wikipedia_url": "https://en.wikipedia.org/wiki/LibreCMC"
  },
  {
    "description": "Salatut ääni- ja videokeskustelut.",
    "notes": "Encryption is only supported for voice and video, but not for instant messaging.",
    "slug": "linphone",
    "url": "https://www.linphone.org/",
    "wikipedia_url": "https://en.wikipedia.org/wiki/Linphone"
  },
  {
    "description": "Litecoin (sign : Ł ; code : LTC) on peer-to-peer kryptovaluutta ja avoimen lähdekoodin, MIT/X11 lisensoitu ohjelmistoprojekti. Bitcoinin (BTC) inspiroima, ja teknisiltä piirteiltään lähes identtinen, Litecoinin luonti ja siirto perustuu avoimen lähdekoodin protokollaan, eikä ole yksittäisen toimijan hallinnoima. Litecoinin kehittäjät pyrkivät parantamaan Bitcoinia kolmessa merkittävässä asiassa.",
    "notes": "Please note that new, digital currencies may be very volatile. Complete loss of your investment is possible for a number of reasons (software errors or attacks, identity theft, etc.). Be prepared!",
    "slug": "litecoin",
    "url": "https://litecoin.org/",
    "wikipedia_url": "https://en.wikipedia.org/wiki/Litecoin"
  },
  {
    "description": "OpenPGP-salaus verkkoselaimella käytettävälle sähköpostille.",
    "slug": "mailvelope",
    "url": "http://www.mailvelope.com/",
    "wikipedia_url": ""
  },
  {
    "description": "Vapaa virtuaalinen kartasto ja atlas.",
    "slug": "marble",
    "url": "http://marble.kde.org/",
    "wikipedia_url": "https://en.wikipedia.org/wiki/Marble_%28software%29"
  },
  {
    "description": "Avoimen lähdekoodin omalta tietokoneelta suoritettavat verkkotilastot.",
    "slug": "matomo",
    "url": "https://matomo.org/",
    "wikipedia_url": "https://en.wikipedia.org/wiki/Matomo_(software)"
  },
  {
    "description": "Hajautettu medianjakopalvelin.",
    "notes": "MediaGoblin ei salaa tietoasi oletuksena.",
    "slug": "mediagoblin",
    "url": "http://mediagoblin.org/",
    "wikipedia_url": "https://en.wikipedia.org/wiki/MediaGoblin"
  },
  {
    "description": "Metahakukone joka toimii välityspalveluna lukuisten palveluiden hakutuloksille.",
    "notes": "No use of Cookies, Session IDs or anything else. Free Proxy, server side anonymisation of IP addresses, Tor branch.",
    "slug": "metager",
    "url": "https://metager.de/en/",
    "wikipedia_url": "https://en.wikipedia.org/wiki/MetaGer"
  },
  {
    "description": "Prosodyyn perustuva XMPP palvelin, edistyneillä hallinta- ja mikrobloggausominaisuuksilla.",
    "slug": "metronome",
    "url": "https://metronome.im",
    "wikipedia_url": "https://en.wikipedia.org/wiki/Metronome_IM"
  },
  {
    "description": "Monero is a secure, private, untraceable P2P currency.",
    "notes": "Please note that new, digital currencies may be volatile. Complete loss of your investment is possible for a number of reasons (software errors or attacks, identity theft, etc.). Be prepared!",
    "slug": "monero",
    "url": "https://getmonero.org",
    "wikipedia_url": "https://en.wikipedia.org/wiki/Monero_(cryptocurrency)"
  },
  {
    "description": "Yksityinen, ympäri maailmaa ylläpidettävä sosiaalinen verkosto.",
    "slug": "movim",
    "url": "https://movim.eu/",
    "wikipedia_url": "https://en.wikipedia.org/wiki/Movim"
  },
  {
    "description": "Yksi maailman suosituimmista verkkoselaimista, avointa lähdekoodia.",
    "notes": "Firefox ei piilota IP-osoitettasi kolmansilta osapuolilta oletuksena. Jos haluat anonymisoida IP-osoitteesi, on suositeltavaa käyttää Tor Browser Bundlea.\n\nFirefoxin oletushakukone on Google. On suositeltavaa vaihtaa tilalle Ixquick, Startpage tai DuckDuck go, tai jokin muu anonyymi hakukone.\n\nOn suositeltavaa poistaa valinta “Block reported attack sites” ja “Block reported web forgeries” menemällä  Tools -> Options -> Security (Windows & GNU/Linux) tai Preferences -> Security (macOS) jos et halua Mozillan lähettävän raportoitujen URL:ien tiivisteitä Googlelle. ",
    "slug": "mozilla-firefox"
  },
  {
    "description": "Avoimen lähdekoodin sähköpostisovellus.",
    "notes": "Thunderbird ei oletuksena salaa sähköposteja. [Tässä](https://securityinabox.org/en/guide/thunderbird/linux/) on Security In A Box:in opas sähköpostien salaamiseen Mozilla Thunderbird:illa, GNU Privacy Guard:illa (GPG) ja Enigmail laajennuksella.\n\nThunderbird voi valinnaisesti yhdistää Tor-verkon yli TorBirdy laajennuksella.\n\nVaikka Thunderbirdia voi käyttää pikaviesti- ja IRC-asiakasohjelmana, se ei tarjoa salausta.",
    "slug": "mozilla-thunderbird",
    "url": "https://www.mozilla.org/en-US/thunderbird/",
    "wikipedia_url": "https://en.wikipedia.org/wiki/Mozilla_Thunderbird"
  },
  {
    "description": "Salatut, pieniviiveiset äänipuhelut.",
    "slug": "mumble",
    "url": "http://www.mumble.info/",
    "wikipedia_url": "https://en.wikipedia.org/wiki/Mumble_%28software%29"
  },
  {
    "description": "Hajautettu DNS-järjestelmä joka perustuu Bitcoin-teknologiaan.",
    "slug": "namecoin",
    "url": "https://namecoin.org",
    "wikipedia_url": "https://en.wikipedia.org/wiki/Namecoin"
  },
  {
    "description": "Salli JavaScript, Java, ja Flash vain sivuilla, joihin luotat.",
    "notes": "Asenna **NoScript** ja valitse asetus ‘Forbid scripts globally’ parantaaksesi selaimesi turvallisuuta, estämällä JavaScript pohjaiset 0-päivähaavoittuvaisuudet. Tämä repivä asetus tekee monista verkkosivuista kätyttökelvottomia sillä ne ovat merkittävissä määrin JavaScript-pohjaisia.\n\nNoScript antaa mahdollisuuden whitelistata luotetut sivut joille JavaScript sallitaan, mutta tätä pidetään [haitallisena anonymiteetille](https://www.torproject.org/docs/faq.html.en#TBBJavaScriptEnabled) jos käytät NoScript:iä **Tor Browser Bundle**:n kanssa.",
    "slug": "noscript",
    "url": "http://noscript.net/",
    "wikipedia_url": "https://en.wikipedia.org/wiki/NoScript"
  },
  {
    "description": "Vapaa dynaaminen DNS-palvelu. Ohjelmalla saat helposti muistettavan DNS-nimen vaihtuvan ja vaikeasti muistettavan IP-osoitteen tilalle. Käytämme standardeja protokollia, eli tuemme suurinta osaa reitittimista ja päivitysasiakasohjelmista ja autamme lisäksi käyttäjiä aktiivisesti konfiguroimaan ne. Välitämme turvallisuudestasi, yksityisyydestäsi ja mukavuudestasi. Voit käyttää joko ilmaista, kotisivuiltamme saatavilla olevaa palvelua, tai jos haluat, voit ajaa ohjelmistoa ohjelmistoa omalta palvelimeltasi.",
    "slug": "nsupdate-info",
    "url": "https://nsupdate.info/",
    "wikipedia_url": "https://en.wikipedia.org/wiki/Nsupdate"
  },
  {
    "description": "Selaa verkkoa Tor-reitityksen kautta. iOS laitteille.",
    "slug": "onion-browser",
    "url": "https://mike.tig.as/onionbrowser/",
    "wikipedia_url": ""
  },
  {
    "description": "OpenKeychain on OpenPGP implementaatio Androidille.",
    "slug": "open-keychain",
    "url": "https://www.openkeychain.org/",
    "wikipedia_url": ""
  },
  {
    "description": "Open Source Routing Machine tai OSRM on C++ implementaatio suorituskykyisestä reititysmoottorista lyhimmille reiteille tieverkoissa. Lisensoitu 'permissive 2-clause BSD license'. OSRM on vapaa verkkopalvelu, joka tukee Linux, FreeBSD, Windows, ja Mac alustoja.",
    "notes": "OSRM pitäisi asentaa ja suorittaa paikallisesti tietokoneella, jotta vältytään tiedon vuotamiselta salaamattomaan verkkopalveluun.",
    "slug": "open-source-routing-machine",
    "url": "http://project-osrm.org/",
    "wikipedia_url": "https://en.wikipedia.org/wiki/Open_Source_Routing_Machine"
  },
  {
    "description": "Vaihtoehtoinen, avoimen lähdekoodin webtilastoija.",
    "slug": "open-web-analytics",
    "url": "http://www.openwebanalytics.com/",
    "wikipedia_url": "https://en.wikipedia.org/wiki/Open_Web_Analytics"
  },
  {
    "description": "Turvallinen BSD-käyttöjärjestelmä.",
    "slug": "openbsd",
    "url": "http://openbsd.org/",
    "wikipedia_url": "https://en.wikipedia.org/wiki/OpenBSD"
  },
  {
    "description": "Useaa alustaa tukeva, Javalla kirjoitettu XMPP-palvelin.",
    "slug": "openfire",
    "url": "http://www.igniterealtime.org/projects/openfire/",
    "wikipedia_url": "https://en.wikipedia.org/wiki/Openfire"
  },
  {
    "description": "Avoin, demokraattinen, sensuurivapaa DNS-palvelin.",
    "notes": "OpenNIC ei ole vielä laatinut virallisia käytänteitä liittyen lokien yksityisyyteen ja anonymisointiin. Lisää tietoa [täällä](https://wiki.opennic.org/opennic:tier2).",
    "slug": "opennic",
    "url": "https://www.opennic.org/",
    "wikipedia_url": "https://en.wikipedia.org/wiki/OpenNIC"
  },
  {
    "description": "Vapaa ja yhteisöllinen maailmanlaajuinen kartta. Tarkat kartat myös Suomesta.",
    "slug": "openstreetmap",
    "url": "http://www.openstreetmap.org/",
    "wikipedia_url": "https://en.wikipedia.org/wiki/OpenStreetMap"
  },
  {
    "description": "Vapaa VPN asiakasohjelmisto.",
    "slug": "openvpn",
    "url": "http://openvpn.net/index.php/open-source.html",
    "wikipedia_url": "https://en.wikipedia.org/wiki/OpenVPN"
  },
  {
    "description": "Sulautettuihin järjestelmiin, erityisesti reitittimiin tarkoitettu GNU/Linux jakelu.",
    "slug": "openwrt",
    "url": "https://openwrt.org/",
    "wikipedia_url": "https://en.wikipedia.org/wiki/OpenWrt"
  },
  {
    "description": "Tor-välityspalvelin Androidille.",
    "slug": "orbot",
    "url": "https://guardianproject.info/apps/orbot/",
    "wikipedia_url": "https://en.wikipedia.org/wiki/Orbot"
  },
  {
    "description": "OsmAnd (OSM Automated Navigation Directions) on kartta ja navigointiohjelma joka käyttää OpenStreetMapin dataa.",
    "slug": "osmand",
    "url": "http://osmand.net/",
    "wikipedia_url": "https://en.wikipedia.org/wiki/OsmAnd"
  },
  {
    "description": "Password Safe (Android Porttaus). Tallentaa salasanat, verkkosivujen URLit, sähköpostiosoitteet, muistiinpanot ja paljon muuta salattuun tiedostoon, eli sinun tarvitsee muistaa ainoastaan yksi salasana. Voit luoda satunnaisia korkean entropian salasanoja ja mukauttaa ohjelmaa sopimaan eri sivujen asettamiin salasanakäytänteisiin.",
    "slug": "passwdsafe",
    "url": "http://passwdsafe.sourceforge.net/",
    "wikipedia_url": ""
  },
  {
    "description": "Simple password manager using gpg and ordinary unix directories.",
    "slug": "password-store",
    "url": "https://www.passwordstore.org/",
    "wikipedia_url": ""
  },
  {
    "description": "Bruce Schneierin suunnittelema Password Safe (Windows/Linux) tallentaa salasanat, verkkosivujen URLit, sähköpostiosoitteet, muistiinpanot ja paljon muuta salattuun tiedostoon, eli sinun tarvitsee muistaa ainoastaan yksi salasana. Voit luoda satunnaisia korkean entropian salasanoja ja mukauttaa ohjelmaa sopimaan eri sivujen asettamiin salasanakäytänteisiin.",
    "slug": "passwordsafe",
    "url": "http://pwsafe.org/",
    "wikipedia_url": "https://en.wikipedia.org/wiki/Password_Safe"
  },
  {
    "description": "Ilmainen kuvagalleria-alusta.",
    "notes": "Piwigo ei salaa kuviasi oletuksena.",
    "slug": "piwigo",
    "url": "http://piwigo.org/",
    "wikipedia_url": "https://en.wikipedia.org/wiki/Piwigo"
  },
  {
    "description": "Tracking blocker that tries to learn who is spying on you and then blocks these ads and invisible trackers.",
    "notes": "Privacy Badger may be less effective than a classic blacklist based solution such as uBlock or Disconnect. Advertisers can automatically unblock themselves by claiming not to track you.",
    "slug": "privacy-badger",
    "url": "https://www.eff.org/privacybadger",
    "wikipedia_url": "https://en.wikipedia.org/wiki/Privacy_Badger"
  },
  {
    "description": "Lua:lla kirjoitettu joustava ja kevyt XMPP-palvelin.",
    "slug": "prosody",
    "url": "https://prosody.im/",
    "wikipedia_url": "https://en.wikipedia.org/wiki/Prosody_%28software%29"
  },
  {
    "description": "Useampaa alustaa tukeva pikaviestialusta tehokäyttäjille. Sisäänrakennetulla OTR-tuella.",
    "slug": "psi",
    "url": "http://psi-plus.com/",
    "wikipedia_url": "https://en.wikipedia.org/wiki/Psi_%28instant_messaging_client%29"
  },
  {
    "description": "Käyttäjien ylläpitämä sosiaalinen streamaus-palvelin.",
    "slug": "pumpio",
    "url": "http://pump.io/",
    "wikipedia_url": "https://en.wikipedia.org/wiki/Pump.io"
  },
  {
    "description": "Muuntaa hetkessä minkä tahansa palvelimen tiedostonjakopalvelimeksi.",
    "slug": "pydio",
    "url": "http://pyd.io/",
    "wikipedia_url": ""
  },
  {
    "description": "Fedora/Xen-pohjainen käyttöjärjestelmä, joka on suunniteltu turvalliseksi eristämällä ohjelmistot toisistaan.",
    "slug": "qubes",
    "url": "https://www.qubes-os.org/",
    "wikipedia_url": "https://en.wikipedia.org/wiki/Qubes_OS"
  },
  {
    "description": "Täysin vapaa Android-jakelu.",
    "slug": "replicant",
    "url": "http://replicant.us/",
    "wikipedia_url": "https://en.wikipedia.org/wiki/Replicant_%28operating_system%29"
  },
  {
    "description": "Ilmainen ja turvallinen P2P-keskustelualusta.",
    "notes": "Huomaa, ettei RetroSharea ole auditoitu tietoturva-asiantuntijoiden toimesta, joten se saattaa sisältää tietoturva-aukkoja.\n\nNiille, joilla ei ole palvelinta, Retroshare on luultavasti helpoin tapa aloittaa oma salattu sosiaalinen media.",
    "slug": "retroshare",
    "url": "http://retroshare.net",
    "wikipedia_url": "https://en.wikipedia.org/wiki/RetroShare"
  },
  {
    "description": "Ring is a secure and distributed voice, video and chat communication platform that requires no centralized server and leaves the power of privacy in the hands of the user.",
    "slug": "ring",
    "url": "https://ring.cx/",
    "wikipedia_url": "https://en.wikipedia.org/wiki/Ring_(software)"
  },
  {
    "description": "Riot is a secure collaboration app for group chat, file transfer and voice/video conferencing built on the decentralized Matrix ecosystem, providing bridges and integrations to centralized services such as IRC, Slack, Gitter, etc",
    "notes": "End-to-end encryption is in beta on Web as of Nov 5th 2016, with other platforms following week of Nov 14th",
    "slug": "riot",
    "url": "https://riot.im/",
    "wikipedia_url": "https://en.wikipedia.org/wiki/Matrix_(communication_protocol)"
  },
  {
    "description": "Yksityiset ja tietoturvalliset sähköpostitilit.",
    "notes": "Riseup:in palveluihin pääsee myös käsiksi Tor:in piilopalveluiden kautta. Lista palveluista on saatavilla [täältä](https://www.riseup.net/en/tor#riseups-tor-hidden-services).",
    "slug": "riseup",
    "url": "https://riseup.net/en",
    "wikipedia_url": ""
  },
  {
    "description": "Monille laitteille suunniteltu monikäyttöinen viestintäväline.",
    "slug": "salut-a-toi",
    "url": "http://sat.goffi.org/",
    "wikipedia_url": ""
  },
  {
    "description": "The personal, minimalist, super-fast, no-database delicious clone.",
    "slug": "shaarli",
    "url": "https://github.com/shaarli/Shaarli/",
    "wikipedia_url": ""
  },
  {
    "description": "A fork of TextSecure with SMS encryption.",
    "slug": "silence",
    "url": "https://silence.im/",
    "wikipedia_url": ""
  },
  {
    "description": "Omalta tietokoneelta suoritettava versionhallinta ja tiedostonsynkronointi.",
    "slug": "sparkleshare",
    "url": "http://sparkleshare.org/",
    "wikipedia_url": "https://en.wikipedia.org/wiki/SparkleShare"
  },
  {
    "description": "Yksityisyyttä arvostava hakukone, joka ei kerää tietoja.",
    "notes": "Startpage on Yhdysvalloissa ja Alankomaissa ylläpidetty SaaS joka tarjoaa anonyymit Googlehaut ja kuvat ilmaisen väliyspalvelimen kautta. Its sibling project ixquick.eu, however, offer results from other search engine.\n\n Ixquick also provides the stand-alone Ixquick Proxy service that allows users to open search results via proxy.\n\n As of February 19, 2015, Startpage.com is the default search engine in the Tor Browser.",
    "slug": "startpage",
    "url": "https://startpage.com/",
    "wikipedia_url": "https://en.wikipedia.org/wiki/Ixquick#Startpage.com"
  },
  {
    "description": "Continuous decentralized file synchronization.",
    "notes": "Syncthing is a self-hosted file sharing platform, so none of your data is ever stored anywhere other than on your computers. There is no central server that might be compromised, legally or illegally. All communication is secured using TLS. The encryption used includes perfect forward secrecy to prevent any eavesdropper from gaining access to your data. Every node is identified by a strong cryptographic certificate. Only nodes you have explicitly allowed can connect to your cluster.",
    "slug": "syncthing",
    "url": "https://syncthing.net/",
    "wikipedia_url": "https://en.wikipedia.org/wiki/Syncthing"
  },
  {
    "description": "Ilmainen ja avoin pilvipalvelu.",
    "slug": "tahoe-lafs",
    "url": "https://tahoe-lafs.org/trac/tahoe-lafs",
    "wikipedia_url": "https://en.wikipedia.org/wiki/Tahoe-LAFS"
  },
  {
    "description": "TAILS on Debian-pohjainen GNU/Linux livekäyttöjärjestelmä jonka voi käynnistää millä tahansa tietokoneella joko DVD-levyltä, USB-muistilta tai SD-kortilta. Tails suojaa yksityisyyttäsi ja anonymiteettiäsi, ja auttaa käyttäjää kiertämään sensuuria pakottamalla kaikki yhteydet Internetiin Tor-verkon läpi. Tails ei jätä käyttöjärjestelmään jälkiä ellet erikseen pyydä. Käyttöjärjestelmältä löytyvät valmiiksi alansa huippua olevat kryptografiset työkalut, jotka salaavat tiedostot, sähköpostit ja pikaviestit.",
    "slug": "tails",
    "url": "https://tails.boum.org/",
    "wikipedia_url": "https://en.wikipedia.org/wiki/The_Amnesic_Incognito_Live_System"
  },
  {
    "description": "Javalla kehitetty, useaa alustaa tukeva XMPP-palvelin.",
    "slug": "tigase",
    "url": "http://www.tigase.org/",
    "wikipedia_url": "https://en.wikipedia.org/wiki/Tigase"
  },
  {
    "description": "Vapaa ohjelmisto-daemon, joka käyttää tunnelointia ja salausta turvallisen yksityisverkon luomiseen.",
    "slug": "tinc",
    "url": "http://tinc-vpn.org/",
    "wikipedia_url": "https://en.wikipedia.org/wiki/Tinc_%28protocol%29"
  },
  {
    "description": "Tor, (aiemmin TOR, lyhenne nimestä 'The Onion Router') on vapaa ohjelmisto joka mahdollistaa anonyymin Internetin käytön.\n\nTor ohjaa Internet-liikenteen ilmaisen, maailmanlaajuisen, yli 4000 vapaaehtoisesti ylläpidetyn välityspalvelimen (releen) joukosta poimittujen releiden läpi, piilottaen käyttäjän sijainnin ja verkon käyttötarkoituksen keneltä tahansa verkkoa valvovalta, tai verkon liikennettä analysoivalta. Tor:n käyttö tekee internet-käyttäytymisen seuraamisesta vaikeampaa: vierailut verkkosivuille, verkkoon kirjoitetut viestit, pikaviestit sekä muut viestintämuodot ovat erittäin vaikeita liittää alkuperäiseen käyttäjään. Tor on tarkoitettu suojaamaan käyttäjien yksityisyyttä sekä heidän vapauttaan ja kykyään toimia luottamuksellisesti, estämällä internetin käyttötottumusten valvonta.\n\nTor verkon piilopalvelut (Tor Hidden Services) mahdollistavat sensuurivapaan julkaisun, sillä verkkopalvelin käytkeytyy tor-reitittimen taakse ja on siten erittäin työläs jäljittää.",
    "slug": "tor",
    "url": "https://www.torproject.org/",
    "wikipedia_url": "https://en.wikipedia.org/wiki/Tor_%28anonymity_network%29"
  },
  {
    "description": "Tor Browser bundle on Mozillan Firefoxiin perustuva verkkoselain, joka mahdollistaa anonyymin verkkoselaamisen GNU/Linux, Windows ja OSX käyttöjärjestelmillä.",
    "notes": "Tor Browser Bundle ei anonymisoi käyttäjää, mikäli hän kirjautuu tosielämän sähköpostiin. Lisäksi, viimeinen Tor-rele (exit-node) pystyy tarkkailemaan kaikkea salaamatonta verkkoliikennettä, ja se saattaa myös pyrkiä lähettämään käyttäjälle phishing-sivun, tai alkuperäisen sivun, jonka TLS-salaus on purettu. Pyri käyttämään HTTPS-everywhere laajennusta, varmista että yhteys palvelimelle on salattu ja että sertifikaattiketju on kunnossa. Älä kirjaudu Tor-verkon kautta HTTP verkkosivuille: Käyttäjätunnuksesi ja salasanasi on helppo varastaa.",
    "slug": "tor-browser",
    "url": "https://www.torproject.org/projects/torbrowser.html.en",
    "wikipedia_url": "https://en.wikipedia.org/wiki/Tor_Browser"
  },
  {
    "description": "Laajennus jolla Thunderbird ja Icedove voivat anonymisoida verkkoliikenteen Tor-verkon kautta.",
    "notes": " TorBirdy on beta-vaiheessa ja saatavilla kokeilukäyttön. Varmista ennen käyttöä, että olet tietoinen tunnetuista ongelmista lukemalla läpi “Before using TorBirdy” ja “Known TorBirdy” osiot projektin verkkosivuilla.",
    "slug": "torbirdy",
    "url": "https://trac.torproject.org/projects/tor/wiki/torbirdy",
    "wikipedia_url": ""
  },
  {
    "description": "Vapaa ja avointa lähdekoodia oleva, peer-to-peer, salattu pikaviestiohjelma joka tukee videopuheluita. Projektin tavoitteena on tarjota turvallinen ja helppokäyttöinen viestintämenetelmä kaikille.",
    "notes": "Tox on uusi, rakenteilla oleva viestintäjärjestelmä. Se on rakennettu hyvin tunnetun salauskirjaston ympärille jolla on paljon potentiaalia, mutta tietoturva-alan asiantuntijat eivät ole vielä auditoineet sitä. Käytä ohjelmaa omalla vastuullasi. Jos päätät kokeilla Tox:ia, muista jättää kehittäjille palautetta.\n\nTox:illa ei ole vielä virallista graafista käyttöliittymää (GUI), mutta kehittäjätiimi suosittelee [lukuisia](https://wiki.tox.chat/Binaries).",
    "slug": "tox",
    "url": "https://tox.chat",
    "wikipedia_url": "https://en.wikipedia.org/wiki/Tox_(software)"
  },
  {
    "description": "Tunnelblick is a free, open source graphic user interface for OpenVPN on macOS. It provides easy control of OpenVPN client and/or server connections.",
    "slug": "tunnelblick",
    "url": "https://tunnelblick.net/",
    "wikipedia_url": ""
  },
  {
    "description": "An efficient blocker for Firefox and Chromium. Fast and lean.",
    "slug": "ublock-origin",
    "url": "https://github.com/gorhill/uBlock",
    "wikipedia_url": "https://en.wikipedia.org/wiki/UBlock#uBlock_Origin"
  },
  {
    "description": "Metahakukone joka suojaa yksityisyyttä ja pyrkii palauttamaan neutraaleja hakutuloksia.",
    "notes": "Unbubble on salsalainen verkkohakukone, joka tarjoaa tuloksia kahdeksalla kielellä. Sen pääasiallinen tavoite on luoda neutraaleja hakutuloksia. Unbubble ei omien sanojensa mukaan kerää käyttäjistään lainkaan tietoa.",
    "slug": "unbubble",
    "url": "https://unbubble.eu",
    "wikipedia_url": ""
  },
  {
    "description": "Client-side encrypted image host web server.",
    "notes": "Up1 is a simple host that client-side encrypts images, text, and other data, and stores them, with the server knowing nothing about the contents. It has the ability to view images, text with syntax highlighting, short videos, and arbitrary binaries as downloadables.",
    "slug": "up1",
    "url": "https://github.com/Upload/Up1/blob/master/README.md",
    "wikipedia_url": ""
  },
  {
    "description": "wallabag is a self hostable application for saving web pages. Unlike other services, wallabag is free (as in freedom) and open source.",
    "slug": "wallabag",
    "url": "https://www.wallabag.org/",
    "wikipedia_url": ""
  },
  {
    "description": "Laajennettava ja muokattava chat-asiakasohjelma, joka tukee IRC- ja XMPP-protokollia.",
    "slug": "weechat",
    "url": "http://www.weechat.org/",
    "wikipedia_url": "https://en.wikipedia.org/wiki/WeeChat"
  },
  {
    "description": "The most comprehensive and integrated Free / Libre / Open Source software suite ever developed.",
    "slug": "wikisuite",
    "url": "http://wikisuite.org/",
    "wikipedia_url": ""
  },
  {
    "description": "Ilmainen verkkosivun ja blogin julkaisujärjestelmä.",
    "notes": "WordPress ei salaa liikennettä oletuksena.\n\nKäyttämällä avatareja WordPressissä, Gravatarit aktivoituvat, joka lähettää sähköposti-osoitteesi gravatar.com:ille. Avatarit aktivoituvat oletuksena ja ne voi saammuttaa navigoimalla “Settings > Discussion > Avatars”.\n\nOletusteema pakottaa vierailijasi lataamaan Googlen Fonts:in. On suositeltavaa vaihtaa täysin itse ylläpidettyyn teemaan. Voit myös asentaa laajennuksen <a href='http://wordpress.org/plugins/disable-google-fonts/'>“Disable Google Fonts”</a> poistaaksesi tämän haavoittuvaisuuden.",
    "slug": "wordpress",
    "url": "https://wordpress.org/",
    "wikipedia_url": "https://en.wikipedia.org/wiki/WordPress"
  },
  {
    "description": "Ilmainen median julkaisujärjestelmä.",
    "notes": "Zenphoto ei salaa liikennettä tai tietojasi oletuksena.",
    "slug": "zenphoto",
    "url": "http://www.zenphoto.org/",
    "wikipedia_url": ""
  }
]
